…
For some ideas on getting started with analyzing these texts, see [*Text Mining with R* by Julia Silge and David Robinson](https://www.tidytextmining.com/), or Julia Silge's [blog post on sentiment analysis of Jane Austen's novels](https://juliasilge.com/blog/if-i-loved-nlp-less/). For help within R, try `?old_testament` or similar for getting started with the data sets.

Here's how to use `lds_scriptures()`:

```r 
library(dplyr)
library(scriptuRs)

scriptures <- lds_scriptures()

scriptures %>% 
  group_by(volume_title, book_title) %>%
  summarize(total_verses = n())
#> # A tibble: 87 x 3
#> # Groups:   volume_title [?]
#>    volume_title   book_title total_verses
#>    <chr>          <chr>             <int>
#>  1 Book of Mormon 1 Nephi             618
#>  2 Book of Mormon 2 Nephi             779
#>  3 Book of Mormon 3 Nephi             785
#>  4 Book of Mormon 4 Nephi              49
#>  5 Book of Mormon Alma               1975
#>  6 Book of Mormon Enos                 27
#>  7 Book of Mormon Ether               433
#>  8 Book of Mormon Helaman             497
#>  9 Book of Mormon Jacob               203
#> 10 Book of Mormon Jarom                15
#> # ... with 77 more rows
```

And here's how to use `kvj_bible()`:

```r
bible <- kjv_bible()

bible %>% 
  group_by(volume_title, book_title) %>%
  summarize(total_verses = n())
#> # A tibble: 66 x 3
#> # Groups:   volume_title [?]
#>    volume_title  book_title      total_verses
#>    <chr>         <chr>                  <int>
#>  1 New Testament 1 Corinthians            437
#>  2 New Testament 1 John                   105
#>  3 New Testament 1 Peter                  105
#>  4 New Testament 1 Thessalonians           89
#>  5 New Testament 1 Timothy                113
#>  6 New Testament 2 Corinthians            257
#>  7 New Testament 2 John                    13
#>  8 New Testament 2 Peter                   61
#>  9 New Testament 2 Thessalonians           47
#> 10 New Testament 2 Timothy                 83
#> # ... with 56 more rows
```
…
